Microaprendizajes de un proyecto – chechoid.netlify.app
…
# Cuento la cantidad de líderes por sector y géenero
plantel <- plantel %>% 
  rename(division = `Unidad de Negocio`, 
         lider = Líder, 
         sexo = Género, 
         sector = Sector, 
         pais = País) %>% 
  filter(lider == "true") %>% 
  group_by(pais, division, sector, lider, sexo) %>% 
  tally() %>% 
  ungroup()

plantel

# A tibble: 106 × 6
   pais  division sector           lider sexo          n
   <chr> <chr>    <chr>            <chr> <chr>     <int>
 1 Chad  Unidad 1 Comercial        true  Femenino      4
 2 Chad  Unidad 1 Comercial        true  Masculino     3
 3 Chad  Unidad 1 R&D              true  Femenino      5
 4 Chad  Unidad 1 R&D              true  Masculino     1
 5 Chad  Unidad 2 Administración   true  Femenino      3
 6 Chad  Unidad 2 Administración   true  Masculino     6
 7 Chad  Unidad 2 Calidad          true  Femenino      1
 8 Chad  Unidad 2 Comercial        true  Femenino      5
 9 Chad  Unidad 2 Comercial        true  Masculino     1
10 Chad  Unidad 2 Recursos Humanos true  Femenino      3
# ℹ 96 more rows
# Pivoteo el dataset a un dataset ancho
plantel <- plantel %>% 
  pivot_wider(.,
              names_from = sexo,
              values_from = n)

# Reemplaza los NA con un 0
plantel[is.na(plantel)] <- 0

# Calculo porcentaje de líderes hombres
plantel %>% 
  mutate(prop_lider_hombre = if_else(Femenino == 0, 1, Masculino / (Masculino +Femenino))) %>% 
  select(-lider)

# A tibble: 60 × 6
   pais  division sector           Femenino Masculino prop_lider_hombre
   <chr> <chr>    <chr>               <int>     <int>             <dbl>
 1 Chad  Unidad 1 Comercial               4         3             0.429
 2 Chad  Unidad 1 R&D                     5         1             0.167
 3 Chad  Unidad 2 Administración          3         6             0.667
 4 Chad  Unidad 2 Calidad                 1         0             0    
 5 Chad  Unidad 2 Comercial               5         1             0.167
 6 Chad  Unidad 2 Recursos Humanos        3         0             0    
 7 Chad  Unidad 3 Administración          2         2             0.5  
 8 Chad  Unidad 3 Calidad                 2         2             0.5  
 9 Chad  Unidad 3 Comercial               5        20             0.8  
10 Chad  Unidad 3 HSE                     1         0             0    
# ℹ 50 more rows
